Division,Name,BirthYear,Country,BodyweightKg,Bench1Kg,Bench2Kg,Bench3Kg,Best3BenchKg,WeightClassKg,Sex,CyrillicName,Event,TotalKg,Equipment,Place
Open,Karina Simonyants,1977,Russia,47.35,85,90,92.5,92.5,48,F,Карина Симонянц,B,92.5,Single-ply,1
Open,Svetlana Mochalova,1981,Russia,46.2,30,-32.5,-32.5,30,48,F,Светлана Мочалова,B,30,Single-ply,2
Open,Lyubov Pavlova,1970,Russia,51.95,62.5,-67.5,-67.5,62.5,52,F,Любовь Павлова,B,62.5,Single-ply,1
Open,Olga Spitsyna,1985,Russia,52,60,-65,-65,60,52,F,Ольга Спицына,B,60,Single-ply,2
Open,Yanina Udarova,1988,Russia,51.05,45,50,-55,50,52,F,Янина Ударова,B,50,Single-ply,3
Open,Inna Borovskaya,1992,Russia,53.9,55,62.5,65,65,56,F,Инна Боровская,B,65,Single-ply,1
Open,Anzhelika Kolesneva,1965,Russia,60,70,-75,-75,70,60,F,Анжелика Колеснева,B,70,Single-ply,1
Open,Viktoriya Barkova,1975,Russia,56.2,60,65,-70,65,60,F,Виктория Баркова,B,65,Single-ply,2
Open,Anna Rubtsova,1985,Russia,60,55,-60,-60,55,60,F,Анна Рубцова,B,55,Single-ply,3
Open,Tatyana Ivanova,1972,Russia,65.7,-100,100,107.5,107.5,67.5,F,Татьяна Иванова,B,107.5,Single-ply,1
Open,Yuliya Yakovleva,1979,Russia,72.4,100,110,-120,110,75,F,Юлия Яковлева,B,110,Single-ply,1
Open,Maryana Bondar,1987,Russia,81.25,105,-115,115,115,82.5,F,Марьяна Бондарь,B,115,Single-ply,1
Open,Natalya Rumyantseva,1971,Russia,83.7,140,150,160,160,90,F,Наталья Румянцева,B,160,Single-ply,1
Masters 4,Boris Skakov,1937,Russia,72.3,90,95,100,100,75,M,Борис Скаков,B,100,Single-ply,1
Masters 4,Nikolay Shusherin,1937,Russia,83.1,75,77.5,-80,77.5,90,M,Николай Шушерин,B,77.5,Single-ply,1
Masters 3,Vladimir Afonin,1945,Russia,67.5,115,120,122.5,122.5,67.5,M,Владимир Афонин,B,122.5,Single-ply,1
Masters 3,Yuriy Gurevich,1949,Russia,81.65,130,-137.5,137.5,137.5,82.5,M,Юрий Гуревич,B,137.5,Single-ply,1
Masters 3,Aleksandr Shkolnikov,1947,,90,130,135,,135,90,M,Александр Школьников,B,135,Single-ply,1
Masters 2,Petr Posokhin,1955,Russia,74.95,140,147.5,150,150,75,M,Петр Посохин,B,150,Single-ply,1
Masters 2,Yuriy Novikov,1950,Russia,74.45,140,-147.5,,140,75,M,Юрий Новиков,B,140,Single-ply,2
Masters 2,Vladimir Lukyanenko,1956,Russia,79.9,155,162.5,,162.5,82.5,M,Владимир Лукьяненко,B,162.5,Single-ply,1
Masters 2,Sergey Panibratov,1958,Russia,89.85,165,172.5,,172.5,90,M,Сергей Панибратов,B,172.5,Single-ply,1
Masters 2,Aleksandr Karavaev,1959,Russia,88.9,140,145,-150,145,90,M,Александр Караваев,B,145,Single-ply,2
Masters 2,Damir Kuzeev,1952,Russia,97.3,197.5,-207.5,-207.5,197.5,100,M,Дамир Кузеев,B,197.5,Single-ply,1
Masters 2,Aleksandr Tsetserskiy,1959,Russia,100,170,180,-190,180,100,M,Александр Цецерский,B,180,Single-ply,2
Masters 2,Sergey Semenov,1957,Russia,114.35,165,170,180,180,125,M,Сергей Семенов,B,180,Single-ply,1
Masters 1,Aleksandr Nikitin,1967,Russia,74.9,110,115,120,120,75,M,Александр Никитин,B,120,Single-ply,1
Masters 1,Andrey Kogan,1962,Russia,81.7,150,160,170,170,82.5,M,Андрей Коган,B,170,Single-ply,1
Masters 1,Aleksandr Naumov,1963,Russia,89.75,170,175,180,180,90,M,Александр Наумов,B,180,Single-ply,1
Masters 1,Sergey Astafyev,1968,Russia,85.7,140,150,-167.5,150,90,M,Сергей Астафьев,B,150,Single-ply,2
Masters 1,Gennadiy Deys,1965,Russia,87.85,-170,-170,-170,,90,M,Геннадий Дейс,B,,Single-ply,DQ
Masters 1,Dmitriy Polikarpov,1967,Russia,98.4,200,212.5,-220,212.5,100,M,Дмитрий Поликарпов,B,212.5,Single-ply,1
Masters 1,Yuriy Karpyuk,1962,Russia,97.6,-170,170,-180,170,100,M,Юрий Карпюк,B,170,Single-ply,2
Masters 1,Aleksandr Stadnik,1966,Russia,99.15,140,-150,-150,140,100,M,Александр Стадник,B,140,Single-ply,3
Masters 1,Yaroslav Glazunov,1968,Russia,108.1,200,205,-215,205,110,M,Ярослав Глазунов,B,205,Single-ply,1
Masters 1,Igor Latyshev,1968,Russia,107.85,-150,-150,-150,,110,M,Игорь Латышев,B,,Single-ply,DQ
Masters 1,Mikhail Artemev,1969,Russia,114.75,220,230,-250,230,125,M,Михаил Артемьев,B,230,Single-ply,1
Masters 1,Grigoriy Gopta,1965,Russia,112,190,,,190,125,M,Григорий Гопта,B,190,Single-ply,2
Masters 1,Dmitriy Lukash,1964,Russia,120.2,-170,170,180,180,125,M,Дмитрий Лукаш,B,180,Single-ply,3
Masters 1,Aleksandr Erozidi,1965,Russia,133,240,-250,252.5,252.5,125+,M,Александр Ерозиди,B,252.5,Single-ply,1
Masters 1,Vadim Sapozhkov,1967,Russia,141.65,200,-210,-210,200,125+,M,Вадим Сапожков,B,200,Single-ply,2
Masters 1,Konstantin Romanov,1962,Russia,137.4,-180,185,-190,185,125+,M,Константин Романов,B,185,Single-ply,3
Teen Under 17,Ilya Zhernosek,1994,Russia,74.35,-97.5,-97.5,97.5,97.5,75,M,Илья Жерносек,B,97.5,Single-ply,1
Teen Under 17,Aleksey Kuznetsov,1994,Russia,71,85,90,95,95,75,M,Алексей Кузнецов,B,95,Single-ply,2
Teen Under 17,Aleksandr Scherbanich,1994,Russia,,-110,-120,120,120,90+,M,Александр Щербанич,B,120,Single-ply,1
Teen 17-18,Aleksandr Shepel,1992,Russia,51.3,60,65,70,70,52,M,Александр Шепель,B,70,Single-ply,1
Teen 17-18,Sergey Nagornyy,1991,Russia,67.5,120,125,-130,125,67.5,M,Сергей Нагорный,B,125,Single-ply,1
Teen 17-18,Oleg Gravin,1991,Russia,66.25,110,115,-120,115,67.5,M,Олег Гравин,B,115,Single-ply,2
Teen 17-18,Andrey Moiseev,1991,Russia,61.7,95,100,-102.5,100,67.5,M,Андрей Моисеев,B,100,Single-ply,3
Teen 17-18,Emelkam Abdurashidov,1992,Russia,66.4,-80,85,-87.5,85,67.5,M,Эмелькам Абдурашидов,B,85,Single-ply,4
Teen 17-18,Oleg Lupa,1991,Russia,74.55,100,-110,-110,100,75,M,Олег Лупа,B,100,Single-ply,1
Teen 17-18,Ivan Chernykh,1991,Russia,81.4,135,140,145,145,82.5,M,Иван Черных,B,145,Single-ply,1
Teen 17-18,Maksim Solodkin,1991,Russia,89,130,-140,-140,130,90,M,Максим Солодкин,B,130,Single-ply,1
Teen 17-18,Aleksey Astashkevich,1991,Russia,89.7,110,120,-132.5,120,90,M,Алексей Асташкевич,B,120,Single-ply,2
Teen 17-18,Mikhail Bolabko,1991,Russia,118.05,130,140,147.5,147.5,90+,M,Михаил Болабко,B,147.5,Single-ply,1
Juniors,Andrey Korestalev,1988,Russia,59.25,110,-115,115,115,60,M,Андрей Коресталев,B,115,Single-ply,1
Juniors,Pavel Prudnikov,1988,Russia,65.85,135,142.5,147.5,147.5,67.5,M,Павел Прудников,B,147.5,Single-ply,1
Juniors,Aleksandr Eremin #4,1989,Russia,66.65,140,147.5,-150,147.5,67.5,M,Александр Еремин,B,147.5,Single-ply,2
Juniors,Aleksey Sidorov,1990,Russia,65.3,120,127.5,130,130,67.5,M,Алексей Сидоров,B,130,Single-ply,3
Juniors,Dmitriy Chernykh,1990,Russia,67.5,120,127.5,-130,127.5,67.5,M,Дмитрий Черных,B,127.5,Single-ply,4
Juniors,Mikhail Alimov,1987,Russia,73.75,185,195,200,200,75,M,Михаил Алимов,B,200,Single-ply,1
Juniors,Aleksandr Rovnov,1988,Russia,74.35,155,165,170,170,75,M,Александр Ровнов,B,170,Single-ply,2
Juniors,Dmitriy Zimin,1986,Russia,74.55,-160,160,167.5,167.5,75,M,Дмитрий Зимин,B,167.5,Single-ply,3
Juniors,Rustam Tagaev,1989,Russia,73.4,-160,-160,162.5,162.5,75,M,Рустам Тагаев,B,162.5,Single-ply,4
Juniors,Dmitriy Timofeev,1987,Russia,70.6,140,145,150,150,75,M,Дмитрий Тимофеев,B,150,Single-ply,5
Juniors,Denis Fedorchuk,1989,Russia,69.95,125,132.5,-140,132.5,75,M,Денис Федорчук,B,132.5,Single-ply,6
Juniors,Sergey Prokudin,1990,Russia,74.8,102.5,-107.5,-107.5,102.5,75,M,Сергей Прокудин,B,102.5,Single-ply,7
Juniors,Vilen Agaronyan,1989,Russia,74.15,-160,-160,-170,,75,M,Вилен Агаронян,B,,Single-ply,DQ
Juniors,Roman Shuraev,1987,Russia,75.55,-165,165,175,175,82.5,M,Роман Шураев,B,175,Single-ply,1
Juniors,Sergey Tochilov,1987,Russia,76.05,162.5,170,175,175,82.5,M,Сергей Точилов,B,175,Single-ply,2
Juniors,Aleksey Mironov,1989,Russia,81,160,170,175,175,82.5,M,Алексей Миронов,B,175,Single-ply,3
Juniors,Stanislav Alekseev,1986,Russia,75.15,-150,157.5,162.5,162.5,82.5,M,Станислав Алексеев,B,162.5,Single-ply,4
Juniors,Aleksandr Pankratyev,1987,Russia,81.75,162.5,-172.5,-172.5,162.5,82.5,M,Александр Панкратьев,B,162.5,Single-ply,5
Juniors,Vladislav Shipulin,1989,Russia,82.45,-160,-160,-160,,82.5,M,Владислав Шипулин,B,,Single-ply,DQ
Juniors,Vitaliy Vikhrov,1987,Russia,87.2,-195,195,-197.5,195,90,M,Виталий Вихров,B,195,Single-ply,1
Juniors,Ruslan Khabibulin,1990,Russia,85.05,-180,190,-195,190,90,M,Руслан Хабибулин,B,190,Single-ply,2
Juniors,Aleksandr Zakharenkov,1989,Russia,88.15,-165,165,-175,165,90,M,Александр Захаренков,B,165,Single-ply,3
Juniors,Kirill Domrachev,1989,Russia,87.7,150,160,-167.5,160,90,M,Кирилл Домрачев,B,160,Single-ply,4
Juniors,Andrey Budkovskiy,1987,Russia,84.75,150,155,-157.5,155,90,M,Андрей Будковский,B,155,Single-ply,5
Juniors,Vladimir Salamakhin,1986,Russia,89.2,-155,-155,155,155,90,M,Владимир Саламахин,B,155,Single-ply,6
Juniors,Zakhar Tishin,1986,Russia,88.75,-200,-200,-205,,90,M,Захар Тишин,B,,Single-ply,DQ
Juniors,Aleksandr Shumilov,1987,Russia,97.5,220,230,235,235,100,M,Александр Шумилов,B,235,Single-ply,1
Juniors,Andrey Pavlenko,1990,Russia,100,-190,-200,205,205,100,M,Андрей Павленко,B,205,Single-ply,2
Juniors,Egor Voronin,1986,Russia,95.6,185,192.5,200,200,100,M,Егор Воронин,B,200,Single-ply,3
Juniors,Aleksey Piliptey,1989,Russia,90.45,140,145,-150,145,100,M,Алексей Пилиптей,B,145,Single-ply,4
Juniors,Evgeniy Syrodubov,1987,Russia,102.4,210,217.5,222.5,222.5,110,M,Евгений Сыродубов,B,222.5,Single-ply,1
Juniors,Dmitriy Starygin,1989,Russia,102.15,160,167.5,175,175,110,M,Дмитрий Старыгин,B,175,Single-ply,2
Juniors,Igor Alekseev,1988,Russia,103.65,120,130,140,140,110,M,Игорь Алексеев,B,140,Single-ply,3
Juniors,Roman Abidzhba,1988,Russia,114.9,190,205,215,215,125,M,Роман Абиджба,B,215,Single-ply,1
Juniors,Artem Pakhomov,1991,Russia,141.25,-130,130,135,135,125+,M,Артем Пахомов,B,135,Single-ply,1
Open,Fedor Klyukin,1981,Russia,55.9,-110,-110,110,110,56,M,Федор Клюкин,B,110,Single-ply,1
Open,Ramil Badalov,1980,Russia,59.2,-115,115,-120,115,60,M,Рамиль Бадалов,B,115,Single-ply,1
Open,Roman Karpov,1979,Russia,59.6,90,95,100,100,60,M,Роман Карпов,B,100,Single-ply,2
Open,Maksim Balakhov,1985,Russia,67.5,185,196,-205,196,67.5,M,Максим Балахов,B,196,Single-ply,1
Open,Pavel Prudnikov,1988,Russia,65.7,-140,145,150,150,67.5,M,Павел Прудников,B,150,Single-ply,2
Open,Aleksandr Eremin #4,1989,Russia,65.95,135,142.5,-150,142.5,67.5,M,Александр Еремин,B,142.5,Single-ply,3
Open,Daniil Alekseev,1988,Russia,65.05,130,135,-140,135,67.5,M,Даниил Алексеев,B,135,Single-ply,4
Open,Alexey Bakhirev,1981,Russia,75,185,190,-200,190,75,M,Алексей Бахирев,B,190,Single-ply,1
Open,Anton Kulikov,1983,Russia,75,-175,180,-190,180,75,M,Антон Куликов,B,180,Single-ply,2
Open,Sergey Tochilov,1987,Russia,74.5,162.5,170,177.5,177.5,75,M,Сергей Точилов,B,177.5,Single-ply,3
Open,Dmitriy Kraynov,1984,Russia,74.45,170,175,-180,175,75,M,Дмитрий Крайнов,B,175,Single-ply,4
Open,Aleksey Khokhrin,1981,Russia,74.4,160,165,-170,165,75,M,Алексей Хохрин,B,165,Single-ply,5
Open,Sergey Alekseev,1985,Russia,72.9,150,155,-160,155,75,M,Сергей Алексеев,B,155,Single-ply,6
Open,Mikhail Nikolaev,1977,Russia,82.5,205,212.5,222.5,222.5,82.5,M,Михаил Николаев,B,222.5,Single-ply,1
Open,Igor Priemyshev,1982,Russia,82.5,210,215,-217.5,215,82.5,M,Игорь Приемышев,B,215,Single-ply,2
Open,Vyacheslav Medvedev,1979,Russia,79.35,-175,180,187.5,187.5,82.5,M,Вячеслав Медведев,B,187.5,Single-ply,3
Open,Aleksandr Smirnov,1982,Russia,81.3,180,-190,-190,180,82.5,M,Александр Смирнов,B,180,Single-ply,4
Open,Ivan Lunev,1978,Russia,81.6,-165,165,180,180,82.5,M,Иван Лунев,B,180,Single-ply,5
Open,Oleg Yavorskiy,1982,Russia,77.8,-145,145,155,155,82.5,M,Олег Яворский,B,155,Single-ply,6
Open,Bakhtiyar Akhmetov,1985,Kazakhstan,80.1,150,-160,-160,150,82.5,M,,B,150,Single-ply,7
Open,Aleksey Plastun,1975,Russia,88.95,222.5,232.5,240,240,90,M,Алексей Пластун,B,240,Single-ply,1
Open,Denis Polyakov,1977,Russia,90,210,215,-220,215,90,M,Денис Поляков,B,215,Single-ply,2
Open,Aleksandr Azhotkin,1983,Russia,88.3,-200,200,205,205,90,M,Александр Ажоткин,B,205,Single-ply,3
Open,Sergey Rogozin,1971,Russia,88.6,-200,200,-210,200,90,M,Сергей Рогозин,B,200,Single-ply,4
Open,Aleksey Golubev,1981,Russia,88.85,-190,190,195,195,90,M,Алексей Голубев,B,195,Single-ply,5
Open,Aleksandr Garnov,1971,Russia,88.6,187.5,192.5,-197.5,192.5,90,M,Александр Гарнов,B,192.5,Single-ply,6
Open,Viktor Vasilyev,1985,Russia,89.3,185,192.5,-195,192.5,90,M,Виктор Васильев,B,192.5,Single-ply,7
Open,Ivan Popretinskiy,1983,Russia,88.6,165,175,185,185,90,M,Иван Попретинский,B,185,Single-ply,8
Open,Yuriy Zhukov,1976,Russia,88.4,-180,-180,182.5,182.5,90,M,Юрий Жуков,B,182.5,Single-ply,9
Open,Kirill Kulikov,1983,Russia,86,170,180,-190,180,90,M,Кирилл Куликов,B,180,Single-ply,10
Open,Artur Beltsov,1982,Russia,88.25,-205,-205,-205,,90,M,Артур Бельцов,B,,Single-ply,DQ
Open,Vasiliy Vinogradov,1979,Russia,86.35,-197.5,-202.5,-202.5,,90,M,Василий Виноградов,B,,Single-ply,DQ
Open,Igor Khludkov,1983,Russia,89.3,-185,-185,-190,,90,M,Игорь Хлудков,B,,Single-ply,DQ
Open,Amiran Basov,1987,Russia,88.1,-180,-180,-180,,90,M,Амиран Басов,B,,Single-ply,DQ
Open,Boris Nikipelov,1982,Russia,99,245,255,260,260,100,M,Борис Никипелов,B,260,Single-ply,1
Open,Sergey Matveev,1982,Russia,96.25,-257.5,257.5,-267.5,257.5,100,M,Сергей Матвеев,B,257.5,Single-ply,2
Open,Denis Radionov,1980,Russia,98.1,-220,230,235,235,100,M,Денис Радионов,B,235,Single-ply,3
Open,Vadim Kaluzhin,1985,Russia,96.55,220,225,-230,225,100,M,Вадим Колужин,B,225,Single-ply,4
Open,Aleksey Ivas,1976,Russia,92.25,205,212.5,220,220,100,M,Алексей Ивас,B,220,Single-ply,5
Open,Dmitriy Kuznetsov,1976,Russia,97.65,-207.5,212.5,220,220,100,M,Дмитрий Кузнецов,B,220,Single-ply,6
Open,Aleksey Moldovan,1978,Russia,99.4,-220,220,-227.5,220,100,M,Алексей Молдован,B,220,Single-ply,7
Open,Vladimir Bogdanovskiy,1985,Russia,98.65,205,-215,-220,205,100,M,Владимир Богдановский,B,205,Single-ply,8
Open,Aleksey Kalinin,1984,Russia,99.7,200,205,-210,205,100,M,Алексей Калинин,B,205,Single-ply,9
Open,Mikhail Mayrygin,1985,Russia,96.4,-180,180,187.5,187.5,100,M,Михаил Майрыгин,B,187.5,Single-ply,10
Open,Alexander Lekomtsev,1972,Russia,93.75,170,180,185,185,100,M,Александр Лекомцев,B,185,Single-ply,11
Open,Aleksey Selemenev,1974,Russia,94.7,-260,-265,-265,,100,M,Алексей Селеменев,B,,Single-ply,DQ
Open,Nikolay Serikov,1984,Russia,109.9,250,-255,255,255,110,M,Николай Сериков,B,255,Single-ply,1
Open,Ruslan Ovchinnikov,1976,Russia,104.25,235,-240,240,240,110,M,Руслан Овчинников,B,240,Single-ply,2
Open,Mikhail Schutskiy,1981,Russia,100.2,230,-237.5,-340,230,110,M,Михаил Щуцкий,B,230,Single-ply,3
Open,Ilya Fedorov #1,1984,Russia,103.05,230,-235,-237.5,230,110,M,Илья Федоров,B,230,Single-ply,4
Open,Evgeniy Mikulin,1980,Russia,104.05,230,-240,-240,230,110,M,Евгений Микулин,B,230,Single-ply,5
Open,Anton Smirnov,1980,Russia,109.25,195,202.5,210,210,110,M,Антон Смирнов,B,210,Single-ply,6
Open,Konstantin Lukyanenok,1972,Russia,101.65,190,200,-210,200,110,M,Константин Лукьяненок,B,200,Single-ply,7
Open,Andrey Parfenov,1971,Russia,101.2,-140,-140,150,150,110,M,Андрей Парфенов,B,150,Single-ply,8
Open,Bogdan Bronovskiy,1984,Russia,105.6,-270,-275,-275,,110,M,Богдан Броновский,B,,Single-ply,DQ
Open,Aleksandr Malikov,1972,Russia,106.6,-245,-245,-245,,110,M,Александр Маликов,B,,Single-ply,DQ
Open,Andrey Izyumov,1979,Russia,108.45,-225,-230,-237.5,,110,M,Андрей Изюмов,B,,Single-ply,DQ
Open,Petr Semenov,1978,Russia,109.6,-215,-215,-215,,110,M,Петр Семенов,B,,Single-ply,DQ
Open,Yaroslav Prikhodko,1974,Russia,106,-190,-190,-190,,110,M,Ярослав Приходько,B,,Single-ply,DQ
Open,Roman Lebedev,1981,Russia,124.5,260,267.5,-273.5,267.5,125,M,Роман Лебедев,B,267.5,Single-ply,1
Open,Aleksandr Krinitskiy,1972,Russia,116.15,260,265,-267.5,265,125,M,Александр Криницкий,B,265,Single-ply,2
Open,Stanislav Evseev,1974,Russia,117,245,-255,255,255,125,M,Станислав Евсеев,B,255,Single-ply,3
Open,Mikhail Chernov,1982,Russia,115.7,230,240,247.5,247.5,125,M,Михаил Чернов,B,247.5,Single-ply,4
Open,Sergey Vidyakin,1973,Russia,113.55,235,245,-255,245,125,M,Сергей Видякин,B,245,Single-ply,5
Open,Aleksey Voronin,1979,Russia,122.2,-240,240,-250,240,125,M,Алексей Воронин,B,240,Single-ply,6
Open,Aleksandr Prokudenkov,1971,Russia,112.65,215,-222.5,,215,125,M,Александр Прокуденков,B,215,Single-ply,7
Open,Evgeniy Semenov,1978,Russia,116.95,210,-220,-220,210,125,M,Евгений Семенов,B,210,Single-ply,8
Open,Maksim Maksimkin,1975,Russia,119.9,180,-200,-200,180,125,M,Максим Максимкин,B,180,Single-ply,9
Open,Sergey Shubitidze,1980,Russia,131.6,280,-301,-301,280,125+,M,Сергей Шубитидзе,B,280,Single-ply,1
Open,Roman Karavashkin,1973,Russia,138.5,250,257.5,262.5,262.5,125+,M,Роман Каравашкин,B,262.5,Single-ply,2
Open,Dmitriy Kozlov #1,1981,Russia,142.5,235,245,250,250,125+,M,Дмитрий Козлов,B,250,Single-ply,3
Open,Vladimir Verdiyanu,1984,Russia,134.85,215,225,-230,225,125+,M,Владимир Вердияну,B,225,Single-ply,4
Open,Roman Sintsov,1984,Russia,131.55,190,200,-220,200,125+,M,Роман Синцов,B,200,Single-ply,5
